{"properties": [
  {
    "name": "spring.jpa.hibernate.dll-auto",
    "type": "java.lang.String",
    "description": "A description for 'spring.jpa.hibernate.dll-auto'"
  },
  {
    "name": "spring.jpa.hibernate.dll-auto",
    "type": "java.lang.String",
    "description": "A description for 'spring.jpa.hibernate.dll-auto'"
  },
  {
    "name": "spring.jpa.hibernate.dll-auto",
    "type": "java.lang.String",
    "description": "A description for 'spring.jpa.hibernate.dll-auto'"
  }
]}